{
  "packName": "Project Manifolder",
  "packId": "project_manifolder",
  "version": "1.0.0",
  "debug": false,
  "classes": {
    "preInit": []
  },
  "loaders": {
    "preInit": [
      "preInit/"
    ],
    "postInit": [
      "postInit/"
    ]
  },
  "packmode": {
    "values": [],
    "default": "",
    "_comment": "By default the packmode is not synced with the packmode mod. You can enable integration, but you can no longer change packmode on the fly.",
    "integratePackmodeMod": false
  }
}